Label 'subpoint_map':
[0]: 9 (1)
[0]: 3 (0)
[0]: 4 (0)
[0]: 0 (102)
[0]: 8 (101)
[0]: 10 (101)
[0]: 1 (-102)
[0]: 12 (-101)
[0]: 14 (-101)
Mesh 'Hybrid Mesh':
Max sizes cone: 4 support: 3
orientation is missing
cap --> base:
[0]: 3 ----> 11
[0]: 3 ----> 14
[0]: 4 ----> 11
[0]: 4 ----> 12
[0]: 4 ----> 19
[0]: 5 ----> 12
[0]: 5 ----> 13
[0]: 5 ----> 20
[0]: 6 ----> 13
[0]: 6 ----> 14
[0]: 7 ----> 15
[0]: 7 ----> 16
[0]: 8 ----> 16
[0]: 8 ----> 17
[0]: 9 ----> 18
[0]: 9 ----> 15
[0]: 9 ----> 19
[0]: 10 ----> 18
[0]: 10 ----> 17
[0]: 10 ----> 20
[0]: 11 ----> 0
[0]: 12 ----> 0
[0]: 12 ----> 2
[0]: 13 ----> 0
[0]: 14 ----> 0
[0]: 15 ----> 1
[0]: 16 ----> 1
[0]: 17 ----> 1
[0]: 18 ----> 2
[0]: 18 ----> 1
[0]: 19 ----> 2
[0]: 20 ----> 2
base <-- cap:
[0]: 0 <---- 11 (0)
[0]: 0 <---- 12 (0)
[0]: 0 <---- 13 (0)
[0]: 0 <---- 14 (0)
[0]: 1 <---- 15 (0)
[0]: 1 <---- 16 (0)
[0]: 1 <---- 17 (0)
[0]: 1 <---- 18 (-2)
[0]: 2 <---- 12 (0)
[0]: 2 <---- 18 (0)
[0]: 2 <---- 19 (0)
[0]: 2 <---- 20 (0)
[0]: 11 <---- 3 (0)
[0]: 11 <---- 4 (0)
[0]: 12 <---- 4 (0)
[0]: 12 <---- 5 (0)
[0]: 13 <---- 5 (0)
[0]: 13 <---- 6 (0)
[0]: 14 <---- 6 (0)
[0]: 14 <---- 3 (0)
[0]: 15 <---- 9 (0)
[0]: 15 <---- 7 (0)
[0]: 16 <---- 7 (0)
[0]: 16 <---- 8 (0)
[0]: 17 <---- 8 (0)
[0]: 17 <---- 10 (0)
[0]: 18 <---- 9 (0)
[0]: 18 <---- 10 (0)
[0]: 19 <---- 4 (0)
[0]: 19 <---- 9 (0)
[0]: 20 <---- 5 (0)
[0]: 20 <---- 10 (0)
coordinates with 1 fields
  field 0 with 2 components
Process 0:
  (   3) dim  2 offset   0 -0.5 0
  (   4) dim  2 offset   2 0 0
  (   5) dim  2 offset   4 0 1
  (   6) dim  2 offset   6 -0.5 1
  (   7) dim  2 offset   8 0.5 0
  (   8) dim  2 offset  10 0.5 1
  (   9) dim  2 offset  12 0 0
  (  10) dim  2 offset  14 0 1
Label 'marker':
[0]: 3 (1)
[0]: 4 (1)
[0]: 5 (1)
[0]: 6 (1)
[0]: 7 (1)
[0]: 8 (1)
[0]: 9 (1)
[0]: 10 (1)
[0]: 11 (1)
[0]: 13 (1)
[0]: 14 (1)
[0]: 15 (1)
[0]: 16 (1)
[0]: 17 (1)